{

	"normalizationParams"			:	{
		"newMin"				:	0.0,
		"newMax"				:	1.0,
		"alpha"					:	1.5,
		"beta"					:	1.1 
	},

	"datasetFiles"					:	[
		"datasetFiles/lgg_data",
		"datasetFiles/hgg_data"
	],

	"denoise"						:	{
		"T1"					:	true,
		"T2"					:	true,
		"T1C"					:	true,
		"FLAIR"					:	true
	},

	"n4BiasFieldCorrection"			:	{
		"T1"					:	true,
		"T2"					:	false,
		"T1C"					:	true,
		"FLAIR"					:	false
	},

	"trainIndices"					:	{
		"0"						:	{
			"lgg_data"		:	[0, 1, 2, 3, 4],
			"hgg_data"		:	[0, 1, 2, 3, 4]
		},
		"1"						:	{
			"lgg_data"		:	[5, 6, 7, 8, 9],
			"hgg_data"		:	[5, 6, 7, 8, 9]
		},
		"2"						:	{
			"lgg_data"		:	[10, 11, 12, 13, 14],
			"hgg_data"		:	[10, 11, 12, 13, 14]
		},
		"3"						:	{
			"lgg_data"		:	[15, 16, 17, 18, 19],
			"hgg_data"		:	[15, 16, 17, 18, 19]
		}
	},

	"testIndices"					:	{
		"lgg_data"				:	[0]
	},

	"predictionIndices"				:	{
		"lgg_data"				:	[0]
	},

	"trainingModelParams"			:	{

		"cascadedArchitecture"		:	false,

		"cascadedNetworksFolder"	:	"cascadedNetworksFiles",

		"cascadedDeployNetPrototxts"	:	[],

		"cascadedNetsModelFiles"	:	[],
		
		"trainOrPredict"		:	"train",

		"solverPrototxtFile"	:	"lenet_solver.prototxt",

		"predictPrototxtFile"	:	"lenet.prototxt.deploy",

		"trainTestPrototxtFile"	:	"lenet.prototxt",

		"modelName"				:	"two_pathway_architecture_caffe",

		"learntModelsDir"		:	"learntModels",

		"modelDir"				:	"models/two_pathway_architecture_caffe"
	},

	"keepPatientDataObjectsInMemory":	true,

	"predictionFilesDir"			:	"predictions",

	"visualizationsDir"				:	"visualizations",

	"testAccuracyCalculationIter"	:	100,

	"queueGetRetryInterval"			:	5,

	"uniqueLabels"					:	5,

	"moduleName"					:	"conv",

	"maxQueueSize"					:	50,

	"numBatchesPerPatient"			:	5,

	"threeDPatches"					:	false,

	"normalizeBatches"				:	true,

	"parametersFile"				:	"two_pathway_architecture_caffe_iter_2500.caffemodel",

	"perInputShapes"				:	[[34, 34, 4]],

	"patchSizes"					:	[34],

	"balancedBatches"				:	true,

	"trainBatchPerLabel"			:	100,

	"testBatchPerLabel"				:	100,

	"predictionBatchSize"			:	500,

	"numPredBatchesGenThreads"		:	4,

	"predCoordinatesQueueMaxSize"	:	10,

	"postProcessPrediction"			:	true,

	"postProcessPrediction"			:	"postProcessPredictionUsingCRFDenoising2D",

	"predBatchesQueueMaxsize"		:	5
}
